\relax 
\providecommand\hyper@newdestlabel[2]{}
\providecommand\HyperFirstAtBeginDocument{\AtBeginDocument}
\HyperFirstAtBeginDocument{\ifx\hyper@anchor\@undefined
\global\let\oldcontentsline\contentsline
\gdef\contentsline#1#2#3#4{\oldcontentsline{#1}{#2}{#3}}
\global\let\oldnewlabel\newlabel
\gdef\newlabel#1#2{\newlabelxx{#1}#2}
\gdef\newlabelxx#1#2#3#4#5#6{\oldnewlabel{#1}{{#2}{#3}}}
\AtEndDocument{\ifx\hyper@anchor\@undefined
\let\contentsline\oldcontentsline
\let\newlabel\oldnewlabel
\fi}
\fi}
\global\let\hyper@last\relax 
\gdef\HyperFirstAtBeginDocument#1{#1}
\providecommand\HyField@AuxAddToFields[1]{}
\providecommand\HyField@AuxAddToCoFields[2]{}
\select@language{american}
\@writefile{toc}{\select@language{american}}
\@writefile{lof}{\select@language{american}}
\@writefile{lot}{\select@language{american}}
\@writefile{toc}{\contentsline {chapter}{\numberline {1}Introduction}{1}{chapter.1}}
\@writefile{lof}{\addvspace {10\p@ }}
\@writefile{lot}{\addvspace {10\p@ }}
\@writefile{loa}{\addvspace {10\p@ }}
\@writefile{toc}{\contentsline {chapter}{\numberline {2}Background}{3}{chapter.2}}
\@writefile{lof}{\addvspace {10\p@ }}
\@writefile{lot}{\addvspace {10\p@ }}
\@writefile{loa}{\addvspace {10\p@ }}
\@writefile{toc}{\contentsline {section}{\numberline {2.1}Computer Animation}{3}{section.2.1}}
\@writefile{lof}{\contentsline {figure}{\numberline {2.1}{\ignorespaces Multiplane tecnique  Source: https://creativefuel.frch.com\relax }}{3}{figure.caption.2}}
\providecommand*\caption@xref[2]{\@setref\relax\@undefined{#1}}
\newlabel{fig:multiplane}{{2.1}{3}{Multiplane tecnique \\Source: https://creativefuel.frch.com\relax }{figure.caption.2}{}}
\@writefile{lof}{\contentsline {figure}{\numberline {2.2}{\ignorespaces Frames per seconds.  Source: http://aframe.com\relax }}{4}{figure.caption.3}}
\newlabel{fig:fps}{{2.2}{4}{Frames per seconds. \\Source: http://aframe.com\relax }{figure.caption.3}{}}
\@writefile{lof}{\contentsline {figure}{\numberline {2.3}{\ignorespaces First digital image made by Russell A. Kirsch - National Institute of Standards and Technology\relax }}{5}{figure.caption.4}}
\newlabel{fig:first}{{2.3}{5}{First digital image made by Russell A. Kirsch - National Institute of Standards and Technology\relax }{figure.caption.4}{}}
\@writefile{lof}{\contentsline {figure}{\numberline {2.4}{\ignorespaces A screenshot frorm Crash bandicoot: Warped\relax }}{5}{figure.caption.5}}
\newlabel{fig:crashBandicoot}{{2.4}{5}{A screenshot frorm Crash bandicoot: Warped\relax }{figure.caption.5}{}}
\@writefile{toc}{\contentsline {section}{\numberline {2.2}Skeletal Animation}{6}{section.2.2}}
\@writefile{lof}{\contentsline {figure}{\numberline {2.5}{\ignorespaces rigging skeleton attached by a mesh.  source: http://www.unitysnippets.theoriginalyeti.co.uk\relax }}{6}{figure.caption.6}}
\newlabel{fig:riggingSkel}{{2.5}{6}{rigging skeleton attached by a mesh. \\source: http://www.unitysnippets.theoriginalyeti.co.uk\relax }{figure.caption.6}{}}
\@writefile{lof}{\contentsline {figure}{\numberline {2.6}{\ignorespaces Motion capture example.  Computer animation algorithms and tecniques\relax }}{7}{figure.caption.7}}
\newlabel{fig:motionCapture}{{2.6}{7}{Motion capture example. \\Computer animation algorithms and tecniques\relax }{figure.caption.7}{}}
\@writefile{toc}{\contentsline {section}{\numberline {2.3}Skinning}{7}{section.2.3}}
\@writefile{lof}{\contentsline {figure}{\numberline {2.7}{\ignorespaces Skinning example: the process is divided by three step. Defining handles, defining weights, deforming the mesh.\relax }}{8}{figure.caption.8}}
\newlabel{fig:skinningExample}{{2.7}{8}{Skinning example: the process is divided by three step. Defining handles, defining weights, deforming the mesh.\relax }{figure.caption.8}{}}
\@writefile{toc}{\contentsline {section}{\numberline {2.4}Quaternions}{8}{section.2.4}}
\citation{clifford1882classification}
\citation{perez2004dual}
\citation{luciano2000avatar}
\citation{kenwright2012beginners}
\@writefile{toc}{\contentsline {subsection}{\numberline {2.4.1}Quaternions arithmetic}{9}{subsection.2.4.1}}
\@writefile{toc}{\contentsline {section}{\numberline {2.5}Dual-quaternions}{9}{section.2.5}}
\@writefile{toc}{\contentsline {subsection}{\numberline {2.5.1}Dual-quaternions arithmetic}{9}{subsection.2.5.1}}
\@writefile{toc}{\contentsline {section}{\numberline {2.6}Finite Element Methods}{11}{section.2.6}}
\newlabel{eq:laplacianCotangentMethod}{{2.2}{12}{Finite Element Methods}{equation.2.6.2}{}}
\@writefile{lof}{\contentsline {figure}{\numberline {2.8}{\ignorespaces Heat distribution over a system, calculated through FEM.  source: https://www.particleincell.com\relax }}{12}{figure.caption.9}}
\newlabel{fig:heatFEM}{{2.8}{12}{Heat distribution over a system, calculated through FEM. \\source: https://www.particleincell.com\relax }{figure.caption.9}{}}
\@writefile{toc}{\contentsline {section}{\numberline {2.7}Used technologies}{13}{section.2.7}}
\@writefile{toc}{\contentsline {subsection}{\numberline {2.7.1}Qt}{13}{subsection.2.7.1}}
\@writefile{toc}{\contentsline {subsection}{\numberline {2.7.2}C++}{13}{subsection.2.7.2}}
\@writefile{toc}{\contentsline {subsection}{\numberline {2.7.3}OpenGL}{13}{subsection.2.7.3}}
\@writefile{toc}{\contentsline {subsection}{\numberline {2.7.4}LibQGLViewer}{13}{subsection.2.7.4}}
\@writefile{toc}{\contentsline {subsection}{\numberline {2.7.5}Eigen}{14}{subsection.2.7.5}}
\@writefile{toc}{\contentsline {subsection}{\numberline {2.7.6}Gurobi}{14}{subsection.2.7.6}}
\@writefile{toc}{\contentsline {subsection}{\numberline {2.7.7}TetGen}{14}{subsection.2.7.7}}
\@writefile{toc}{\contentsline {chapter}{\numberline {3}Skinning weights}{15}{chapter.3}}
\@writefile{lof}{\addvspace {10\p@ }}
\@writefile{lot}{\addvspace {10\p@ }}
\@writefile{loa}{\addvspace {10\p@ }}
\@writefile{toc}{\contentsline {section}{\numberline {3.1}Rigid weights}{15}{section.3.1}}
\citation{jacobson2014skinning}
\@writefile{lof}{\contentsline {figure}{\numberline {3.1}{\ignorespaces Rigid weights are not shape aware, an handle can influence parts of the mesh which not directly attached to it\relax }}{16}{figure.caption.10}}
\newlabel{fig:rigid_shapeaware}{{3.1}{16}{Rigid weights are not shape aware, an handle can influence parts of the mesh which not directly attached to it\relax }{figure.caption.10}{}}
\@writefile{lof}{\contentsline {figure}{\numberline {3.2}{\ignorespaces The mesh breaks on the surface as soon as it is deformed\relax }}{16}{figure.caption.11}}
\newlabel{fig:rigid_shapeaware}{{3.2}{16}{The mesh breaks on the surface as soon as it is deformed\relax }{figure.caption.11}{}}
\citation{baran2007automatic}
\citation{jacobson2011bounded}
\@writefile{toc}{\contentsline {section}{\numberline {3.2}Bone-heat diffusion weights}{17}{section.3.2}}
\newlabel{eq:boneHeatContinuumEquation}{{3.1}{17}{Bone-heat diffusion weights}{equation.3.2.1}{}}
\@writefile{lof}{\contentsline {figure}{\numberline {3.3}{\ignorespaces The heat calculated on the surface is way different from the one calculated on the volume\relax }}{17}{figure.caption.12}}
\newlabel{fig:boneHeat error}{{3.3}{17}{The heat calculated on the surface is way different from the one calculated on the volume\relax }{figure.caption.12}{}}
\@writefile{toc}{\contentsline {section}{\numberline {3.3}Biharmonic weights}{17}{section.3.3}}
\citation{jacobson2010mixed}
\citation{badler1982modelling}
\citation{magnenat1988joint}
\citation{kavan2008geometric}
\@writefile{toc}{\contentsline {chapter}{\numberline {4}Skinning algorithms}{19}{chapter.4}}
\@writefile{lof}{\addvspace {10\p@ }}
\@writefile{lot}{\addvspace {10\p@ }}
\@writefile{loa}{\addvspace {10\p@ }}
\@writefile{toc}{\contentsline {section}{\numberline {4.1}Linear Blend Skinning}{19}{section.4.1}}
\citation{shoemake1985animating}
\@writefile{lof}{\contentsline {figure}{\numberline {4.1}{\ignorespaces Candy wrapper artifact in LBS\relax }}{20}{figure.caption.13}}
\newlabel{fig:candyWrapper}{{4.1}{20}{Candy wrapper artifact in LBS\relax }{figure.caption.13}{}}
\@writefile{toc}{\contentsline {section}{\numberline {4.2}Dual Quaternion Skinning}{20}{section.4.2}}
\newlabel{DQS}{{4.2}{20}{Dual Quaternion Skinning}{section.4.2}{}}
\@writefile{lof}{\contentsline {figure}{\numberline {4.2}{\ignorespaces having a wrong center of rotation can lead to weird and unexpected behaviours\relax }}{21}{figure.caption.14}}
\newlabel{fig:splerqArtifact}{{4.2}{21}{having a wrong center of rotation can lead to weird and unexpected behaviours\relax }{figure.caption.14}{}}
\@writefile{lof}{\contentsline {figure}{\numberline {4.3}{\ignorespaces The heat calculated on the surface is way different from the one calculated on the volume\relax }}{21}{figure.caption.15}}
\newlabel{fig:scaling2phases}{{4.3}{21}{The heat calculated on the surface is way different from the one calculated on the volume\relax }{figure.caption.15}{}}
\@writefile{lof}{\contentsline {figure}{\numberline {4.4}{\ignorespaces Bulge artifact in Dual Quaternion Skinning\relax }}{22}{figure.caption.16}}
\newlabel{fig:bulgeArtifact}{{4.4}{22}{Bulge artifact in Dual Quaternion Skinning\relax }{figure.caption.16}{}}
\@writefile{toc}{\contentsline {subsection}{\numberline {4.2.1}Algorithms Comparison}{22}{subsection.4.2.1}}
\@writefile{lof}{\contentsline {figure}{\numberline {4.5}{\ignorespaces Comparison between LBS and DQS on torsion\relax }}{22}{figure.caption.17}}
\newlabel{fig:candyWrapperArtifact}{{4.5}{22}{Comparison between LBS and DQS on torsion\relax }{figure.caption.17}{}}
\@writefile{lof}{\contentsline {figure}{\numberline {4.6}{\ignorespaces Bomparison between LBS and DQS on bending\relax }}{22}{figure.caption.18}}
\newlabel{fig:bulgeArtifact}{{4.6}{22}{Bomparison between LBS and DQS on bending\relax }{figure.caption.18}{}}
\@writefile{toc}{\contentsline {chapter}{\numberline {5}SkinLab}{25}{chapter.5}}
\@writefile{lof}{\addvspace {10\p@ }}
\@writefile{lot}{\addvspace {10\p@ }}
\@writefile{loa}{\addvspace {10\p@ }}
\@writefile{toc}{\contentsline {section}{\numberline {5.1}Weights implementation}{26}{section.5.1}}
\@writefile{loa}{\contentsline {algocf}{\numberline {1}{\ignorespaces Weights matrix filling\relax }}{26}{algocf.1}}
\@writefile{toc}{\contentsline {subsection}{\numberline {5.1.1}Rigid Weights}{27}{subsection.5.1.1}}
\@writefile{loa}{\contentsline {algocf}{\numberline {2}{\ignorespaces Rigid weights implementation\relax }}{27}{algocf.2}}
\@writefile{toc}{\contentsline {subsection}{\numberline {5.1.2}BoneHeat Weights}{28}{subsection.5.1.2}}
\newlabel{eq:boneHeatConfidence}{{5.1}{28}{BoneHeat Weights}{equation.5.1.1}{}}
\@writefile{toc}{\contentsline {subsection}{\numberline {5.1.3}Bounded Biharmonic Weights}{28}{subsection.5.1.3}}
\@writefile{toc}{\contentsline {section}{\numberline {5.2}Dual Quaternion Skinning}{30}{section.5.2}}
\@writefile{toc}{\contentsline {section}{\numberline {5.3}User Interface}{31}{section.5.3}}
\@writefile{lof}{\contentsline {figure}{\numberline {5.1}{\ignorespaces User Interface\relax }}{31}{figure.caption.19}}
\newlabel{fig:uiBase}{{5.1}{31}{User Interface\relax }{figure.caption.19}{}}
\@writefile{toc}{\contentsline {subsection}{\numberline {5.3.1}Actions widget}{32}{subsection.5.3.1}}
\@writefile{lof}{\contentsline {figure}{\numberline {5.2}{\ignorespaces Selection of the handles\relax }}{32}{figure.caption.20}}
\newlabel{fig:uiSelection}{{5.2}{32}{Selection of the handles\relax }{figure.caption.20}{}}
\@writefile{toc}{\contentsline {subsection}{\numberline {5.3.2}Weights Widget}{33}{subsection.5.3.2}}
\@writefile{lof}{\contentsline {figure}{\numberline {5.3}{\ignorespaces Weights widget\relax }}{33}{figure.caption.21}}
\newlabel{fig:weightsWidget}{{5.3}{33}{Weights widget\relax }{figure.caption.21}{}}
\@writefile{lof}{\contentsline {figure}{\numberline {5.4}{\ignorespaces Weights visualization\relax }}{34}{figure.caption.22}}
\newlabel{fig:weigthsVisualization}{{5.4}{34}{Weights visualization\relax }{figure.caption.22}{}}
\@writefile{toc}{\contentsline {subsection}{\numberline {5.3.3}Save Widget}{34}{subsection.5.3.3}}
\@writefile{lof}{\contentsline {figure}{\numberline {5.5}{\ignorespaces Save widget\relax }}{34}{figure.caption.23}}
\newlabel{fig:saving}{{5.5}{34}{Save widget\relax }{figure.caption.23}{}}
\@writefile{lof}{\contentsline {figure}{\numberline {5.6}{\ignorespaces Saving\relax }}{34}{figure.caption.24}}
\newlabel{fig:saving}{{5.6}{34}{Saving\relax }{figure.caption.24}{}}
\citation{livesu3d}
\citation{pinocchioModel}
\citation{SkeletonLab}
\@writefile{toc}{\contentsline {chapter}{\numberline {6}Results}{37}{chapter.6}}
\@writefile{lof}{\addvspace {10\p@ }}
\@writefile{lot}{\addvspace {10\p@ }}
\@writefile{loa}{\addvspace {10\p@ }}
\@writefile{lof}{\contentsline {figure}{\numberline {6.1}{\ignorespaces Different weights handle differently transformations. Left to right: Rigid weights, BoneHeat weights, Biharmonic weights.\relax }}{39}{figure.caption.30}}
\@writefile{lof}{\contentsline {figure}{\numberline {6.2}{\ignorespaces Bulge artifact. Left to right: Rest pose, BoneHeat, Biharmonic\relax }}{39}{figure.caption.31}}
\@writefile{lof}{\contentsline {figure}{\numberline {6.3}{\ignorespaces Locality comparison:  BoneHeat on the left. Biharmonic on the right.\relax }}{40}{figure.caption.32}}
\@writefile{lof}{\contentsline {figure}{\numberline {6.4}{\ignorespaces Shape-aware comparison:  BoneHeat on the left. Biharmonic on the right.\relax }}{41}{figure.caption.33}}
\@writefile{lot}{\contentsline {table}{\numberline {6.1}{\ignorespaces Results on computation time in seconds for meshes in SkinLab. The meshes has been calculated in more than one definition.\relax }}{43}{table.caption.34}}
\newlabel{my-label}{{6.1}{43}{Results on computation time in seconds for meshes in SkinLab. The meshes has been calculated in more than one definition.\relax }{table.caption.34}{}}
\citation{jacobson2012smooth}
\@writefile{toc}{\contentsline {chapter}{\numberline {7}Future works}{45}{chapter.7}}
\@writefile{lof}{\addvspace {10\p@ }}
\@writefile{lot}{\addvspace {10\p@ }}
\@writefile{loa}{\addvspace {10\p@ }}
\@writefile{toc}{\contentsline {paragraph}{Skeleton}{45}{section*.35}}
\@writefile{toc}{\contentsline {paragraph}{Conical form of the quadratic problem}{45}{section*.36}}
\@writefile{toc}{\contentsline {paragraph}{Scaling}{45}{section*.37}}
\@writefile{toc}{\contentsline {paragraph}{Easier manipulation}{45}{section*.38}}
\@writefile{toc}{\contentsline {paragraph}{Multiple interaction device}{46}{section*.39}}
\citation{*}
\bibstyle{plain}
\bibdata{biblio}
\@writefile{toc}{\contentsline {chapter}{\numberline {8}Conclusions}{47}{chapter.8}}
\@writefile{lof}{\addvspace {10\p@ }}
\@writefile{lot}{\addvspace {10\p@ }}
\@writefile{loa}{\addvspace {10\p@ }}
\bibcite{badler1982modelling}{{1}{}{{}}{{}}}
\bibcite{baran2007automatic}{{2}{}{{}}{{}}}
\bibcite{SkeletonLab}{{3}{}{{}}{{}}}
\bibcite{sarafabri}{{4}{}{{}}{{}}}
\bibcite{clifford1882classification}{{5}{}{{}}{{}}}
\bibcite{pinocchioModel}{{6}{}{{}}{{}}}
\bibcite{jacobson2011bounded}{{7}{}{{}}{{}}}
\bibcite{jacobson2014skinning}{{8}{}{{}}{{}}}
\bibcite{jacobson2010mixed}{{9}{}{{}}{{}}}
\bibcite{jacobson2012smooth}{{10}{}{{}}{{}}}
\bibcite{kavan2008geometric}{{11}{}{{}}{{}}}
\bibcite{kenwright2012beginners}{{12}{}{{}}{{}}}
\bibcite{livesu3d}{{13}{}{{}}{{}}}
\bibcite{luciano2000avatar}{{14}{}{{}}{{}}}
\bibcite{magnenat1988joint}{{15}{}{{}}{{}}}
\bibcite{meyer2001discrete}{{16}{}{{}}{{}}}
\bibcite{mukundan2002quaternions}{{17}{}{{}}{{}}}
\bibcite{parent2012computer}{{18}{}{{}}{{}}}
\bibcite{perez2004dual}{{19}{}{{}}{{}}}
\bibcite{sayas2008gentle}{{20}{}{{}}{{}}}
\bibcite{scateni2005fondamenti}{{21}{}{{}}{{}}}
\bibcite{shoemake1985animating}{{22}{}{{}}{{}}}
\bibcite{wardetzky2007discrete}{{23}{}{{}}{{}}}
\@writefile{toc}{\contentsline {chapter}{References}{50}{appendix*.40}}
\@input{acknowledgements.aux}
\providecommand\NAT@force@numbers{}\NAT@force@numbers
